{
  "debugLogs": false,
  "sharedMediaUrl": "../shared_media",
  "sharedMediaUrlLocal": "../shared_media",
  "audio": {
    "streams": [{
        "hlsPreload": true,
        "secondary": false,
        "folderN": 0
      },
      {
        "hlsPreload": true,
        "secondary": false,
        "folderN": 1
      },
      {
        "hlsPreload": true,
        "secondary": false,
        "folderN": 2
      },
      {
        "hlsPreload": true,
        "secondary": false,
        "folderN": 3
      },
      {
        "secondary": true,
        "fromStream": 3
      },
      {
        "hlsPreload": true,
        "secondary": false,
        "folderN": 4
      },
      {
        "secondary": true,
        "fromStream": 5
      },
      {
        "hlsPreload": true,
        "secondary": false,
        "folderN": 5
      },
      {
        "hlsPreload": true,
        "secondary": false,
        "folderN": 6
      },
      {
        "secondary": true,
        "fromStream": 8
      },
      {
        "hlsPreload": true,
        "secondary": false,
        "folderN": 7
      },
      {
        "secondary": true,
        "fromStream": 10
      },
      {
        "hlsPreload": true,
        "secondary": false,
        "folderN": 8
      },
      {
        "secondary": true,
        "fromStream": 12
      },
      {
        "hlsPreload": true,
        "secondary": false,
        "folderN": 9
      },
      {
        "secondary": true,
        "fromStream": 14
      },
      {
        "hlsPreload": true,
        "secondary": false,
        "folderN": 10
      },
      {
        "hlsPreload": true,
        "secondary": false,
        "folderN": 11
      },
      {
        "hlsPreload": true,
        "secondary": false,
        "folderN": 12
      },
      {
        "hlsPreload": true,
        "secondary": false,
        "folderN": 13
      },
      {
        "hlsPreload": true,
        "secondary": false,
        "folderN": 14
      },
      {
        "hlsPreload": true,
        "secondary": false,
        "folderN": 15,
        "standBySound": true
      },
      {
        "hlsPreload": true,
        "secondary": false,
        "folderN": 16,
        "silenceSound": true
      },
      {
        "hlsPreload": true,
        "secondary": false,
        "folderN": 17,
        "aleatorySound": true
      }
    ]
  },
  "image": {
    "debugMode": false,
    "osdinit": {
      "id": "OSDviewer",
      "tileSources": {
        "type": "tiledmapservice",
        "tilesUrl": "../shared_media/images/tilesTMSsquareHQ/",
        "crossOriginPolicy": "Anonymous",
        "width": 16776704,
        "height": 8388352
      },
      "prefixUrl": "images/openseadragon/",
      "defaultZoomLevel": 3.835,
      "minZoomLevel": 3.835,
      "panVertical": false,
      "panHorizontal": false,
      "constrainDuringPan": true,
      "minScrollDeltaTime": 2000,
      "visibilityRatio": 1,
      "springStiffness": 1.2,
      "animationTime": 1.5,
      "dblClickTimeThreshold": "250",
      "dblClickDistThreshold": "5",
      "gestureSettingsMouse": {
        "scrollToZoom": false,
        "clickToZoom": false,
        "dblClickToZoom": false,
        "pinchToZoom": true,
        "flickEnabled": true,
        "flickMinSpeed": 120,
        "flickMomentum": 0.25,
        "pinchRotate": false,
        "dragToPan": true
      },
      "gestureSettingsTouch": {
        "scrollToZoom": false,
        "clickToZoom": false,
        "dblClickToZoom": false,
        "pinchToZoom": false,
        "flickEnabled": true,
        "flickMinSpeed": 120,
        "flickMomentum": 0.25,
        "pinchRotate": false,
        "dragToPan": true
      },
      "gestureSettingsUnknown": {
        "scrollToZoom": false,
        "dragToPan": true
      },
      "zoomPerClick": 1.0001,
      "zoomPerScroll": 1.0001,
      "showNavigator": true,
      "navigatorPosition": "BOTTOM_RIGHT",
      "timeout": 10000,
      "showNavigationControl": false
    },
    "homeBox": {
      "x": -2.7755575615628914e-17,
      "y": 0.30948359371749384,
      "width": 0.2607561929595828,
      "height": 0.12272020085012335
    },
    "clipBox": {
      "x": 0,
      "y": 5192114.644654654,
      "width": 4374629.465449804,
      "height": 2058840.4844830679
    },
    "maxZoomLevel": 300,
    "zooms": [3.835, 10.5, 25, 50, 110, 300]
  },
  "playarearatios": [0, 0.05, 0.015, 0.004, 0.003, 0.0005],
  "attractors": {
    "0": {  "x": 1, "y": 1, "coeff": 1 },
    "1": [
      {
        "x": 0.2106,
        "y": 0.3716,
        "coeff": 2,
        "stream": 0,
        "markers": [30, 120]
      },
      {
        "x": 0.0675,
        "y": 0.3716,
        "coeff": 2,
        "stream": 1,
        "markers": [30, 120]
      }
    ],
    "2": [
      {
        "x": 0.147,
        "y": 0.355,
        "coeff": 10,
        "stream": 2,
        "omni": true
      },
      {
        "x": 0.2106,
        "y": 0.3716,
        "coeff": 3,
        "stream": 0,
        "fromLayer": "upper"
      },
      {
        "x": 0.0675,
        "y": 0.3716,
        "coeff": 3,
        "stream": 1,
        "fromLayer": "upper"
      },
      {
        "x": 0.0504,
        "y": 0.3682,
        "coeff": 1.5,
        "stream": 8,
        "fromLayer": "lower"
      },
      {
        "x": 0.155,
        "y": 0.368,
        "coeff": 1.5,
        "stream": 12,
        "fromLayer": "lower"
      },
      {
        "x": 0.198,
        "y": 0.365,
        "coeff": 1.5,
        "stream": 14,
        "fromLayer": "lower"
      }
    ],
    "3": [
      { "x": 0.016, "y": 0.363, "coeff": 1.8, "stream": 12 },
      { "x": 0.027, "y": 0.361, "coeff": 1.8, "stream": 13 },
      { "x": 0.042, "y": 0.361, "coeff": 1.8, "stream": 12 },
      { "x": 0.051, "y": 0.368, "coeff": 1.8, "stream": 13 },
      { "x": 0.058, "y": 0.375, "coeff": 1.8, "stream": 12 },
      { "x": 0.065, "y": 0.382, "coeff": 1.8, "stream": 13 },
      { "x": 0.074, "y": 0.386, "coeff": 1.8, "stream": 12 },
      { "x": 0.085, "y": 0.388, "coeff": 1.8, "stream": 13 },
      { "x": 0.096, "y": 0.387, "coeff": 1.8, "stream": 12 },
      { "x": 0.104, "y": 0.385, "coeff": 1.8, "stream": 13 },
      { "x": 0.116, "y": 0.379, "coeff": 1.8, "stream": 12 },
      { "x": 0.129, "y": 0.372, "coeff": 1.8, "stream": 13 },
      { "x": 0.135, "y": 0.369, "coeff": 1.8, "stream": 12 },
      { "x": 0.147, "y": 0.365, "coeff": 1.8, "stream": 13 },
      { "x": 0.159, "y": 0.365, "coeff": 1.8, "stream": 12 },
      { "x": 0.167, "y": 0.370, "coeff": 1.8, "stream": 13 },

      { "x": 0.002, "y": 0.386, "coeff": 1.8, "stream": 14 },
      { "x": 0.018, "y": 0.387, "coeff": 1.8, "stream": 15 },
      { "x": 0.034, "y": 0.387, "coeff": 1.8, "stream": 14 },
      { "x": 0.078, "y": 0.379, "coeff": 1.8, "stream": 15 },
      { "x": 0.086, "y": 0.378, "coeff": 1.8, "stream": 14 },
      { "x": 0.097, "y": 0.376, "coeff": 1.8, "stream": 15 },
      { "x": 0.108, "y": 0.376, "coeff": 1.8, "stream": 14 },
      { "x": 0.116, "y": 0.375, "coeff": 1.8, "stream": 15 },
      { "x": 0.129, "y": 0.378, "coeff": 1.8, "stream": 14 },
      { "x": 0.139, "y": 0.380, "coeff": 1.8, "stream": 15 },
      { "x": 0.149, "y": 0.383, "coeff": 1.8, "stream": 14 },
      { "x": 0.159, "y": 0.386, "coeff": 1.8, "stream": 15 },
      { "x": 0.171, "y": 0.387, "coeff": 1.8, "stream": 14 },
      { "x": 0.183, "y": 0.387, "coeff": 1.8, "stream": 15 },
      { "x": 0.193, "y": 0.385, "coeff": 1.8, "stream": 14 },
      { "x": 0.203, "y": 0.383, "coeff": 1.8, "stream": 15 },
      { "x": 0.211, "y": 0.380, "coeff": 1.8, "stream": 14 },

      { "x": 0.033, "y": 0.365, "coeff": 1.8, "stream": 8 },
      { "x": 0.046, "y": 0.367, "coeff": 1.8, "stream": 9 },
      { "x": 0.057, "y": 0.366, "coeff": 1.8, "stream": 8 },
      { "x": 0.065, "y": 0.367, "coeff": 1.8, "stream": 9 },
      { "x": 0.075, "y": 0.369, "coeff": 1.8, "stream": 8 },
      { "x": 0.087, "y": 0.372, "coeff": 1.8, "stream": 9 },
      { "x": 0.095, "y": 0.371, "coeff": 1.8, "stream": 8 },
      { "x": 0.108, "y": 0.381, "coeff": 1.8, "stream": 9 },
      { "x": 0.119, "y": 0.384, "coeff": 1.8, "stream": 8 },
      { "x": 0.127, "y": 0.385, "coeff": 1.8, "stream": 9 },
      { "x": 0.135, "y": 0.385, "coeff": 1.8, "stream": 8 },
      { "x": 0.142, "y": 0.386, "coeff": 1.8, "stream": 9 },
      { "x": 0.163, "y": 0.382, "coeff": 1.8, "stream": 8 },
      { "x": 0.173, "y": 0.381, "coeff": 1.8, "stream": 9 },

      { "x": 0.012, "y": 0.373, "coeff": 1.8, "stream": 7 },

      { "x": 0.020, "y": 0.376, "coeff": 1.8, "stream": 10 },
      { "x": 0.031, "y": 0.377, "coeff": 1.8, "stream": 11 },
      { "x": 0.038, "y": 0.382, "coeff": 1.8, "stream": 10 },
      { "x": 0.047, "y": 0.385, "coeff": 1.8, "stream": 11 },
      { "x": 0.055, "y": 0.387, "coeff": 1.8, "stream": 10 },

      { "x": 0.217, "y": 0.370, "coeff": 1.8, "stream": 3 },
      { "x": 0.218, "y": 0.380, "coeff": 1.8, "stream": 4 },

      { "x": 0.231, "y": 0.370, "coeff": 1.8, "stream": 5 },
      { "x": 0.241, "y": 0.365, "coeff": 1.8, "stream": 6 },
      { "x": 0.250, "y": 0.366, "coeff": 1.8, "stream": 5 },
      { "x": 0.254, "y": 0.376, "coeff": 1.8, "stream": 6 }

    ],
    "4": [
      {
        "x": 0.130,
        "y": 0.371,
        "coeff": 100,
        "stream": 16,
        "omni": true
      },
      {
        "x": "random",
        "y": "random",
        "coeff": 2.5,
        "stream": 0,
        "fromLayer": "upper",
        "sprite": true,
        "start": 100,
        "stop": 102
      },
      {
        "x": "random",
        "y": "random",
        "coeff": 2.5,
        "stream": 0,
        "fromLayer": "upper",
        "sprite": true,
        "start": 100,
        "stop": 102
      },
      {
        "x": "random",
        "y": "random",
        "coeff": 2.5,
        "stream": 0,
        "fromLayer": "upper",
        "sprite": true,
        "start": 100,
        "stop": 102
      },
      {
        "x": "random",
        "y": "random",
        "coeff": 2.5,
        "stream": 0,
        "fromLayer": "upper",
        "sprite": true,
        "start": 100,
        "stop": 102
      },
      {
        "x": "random",
        "y": "random",
        "coeff": 2.5,
        "stream": 1,
        "fromLayer": "upper",
        "sprite": true,
        "start": 127,
        "stop": 129
      },
      {
        "x": "random",
        "y": "random",
        "coeff": 2.5,
        "stream": 1,
        "fromLayer": "upper",
        "sprite": true,
        "start": 127,
        "stop": 129
      },
      {
        "x": "random",
        "y": "random",
        "coeff": 2.5,
        "stream": 1,
        "fromLayer": "upper",
        "sprite": true,
        "start": 242,
        "stop": 244
      },
      {
        "x": "random",
        "y": "random",
        "coeff": 2.5,
        "stream": 1,
        "fromLayer": "upper",
        "sprite": true,
        "start": 242,
        "stop": 244
      },
      {
        "x": "random",
        "y": "random",
        "coeff": 2.5,
        "stream": 1,
        "fromLayer": "upper",
        "sprite": true,
        "start": 336,
        "stop": 338
      },
      {
        "x": "random",
        "y": "random",
        "coeff": 2.5,
        "stream": 1,
        "fromLayer": "upper",
        "sprite": true,
        "start": 336,
        "stop": 338
      },
      {
        "x": "random",
        "y": "random",
        "coeff": 2.5,
        "stream": 2,
        "fromLayer": "upper",
        "sprite": true,
        "start": 5,
        "stop": 7
      },
      {
        "x": "random",
        "y": "random",
        "coeff": 2.5,
        "stream": 2,
        "fromLayer": "upper",
        "sprite": true,
        "start": 5,
        "stop": 7
      },
      {
        "x": "random",
        "y": "random",
        "coeff": 2.5,
        "stream": 2,
        "fromLayer": "upper",
        "sprite": true,
        "start": 270,
        "stop": 272
      },
      {
        "x": "random",
        "y": "random",
        "coeff": 2.5,
        "stream": 2,
        "fromLayer": "upper",
        "sprite": true,
        "start": 270,
        "stop": 272
      },
      {
        "x": "random",
        "y": "random",
        "coeff": 2.5,
        "stream": 3,
        "fromLayer": "upper",
        "sprite": true,
        "start": 100,
        "stop": 102
      },
      {
        "x": "random",
        "y": "random",
        "coeff": 2.5,
        "stream": 3,
        "fromLayer": "upper",
        "sprite": true,
        "start": 100,
        "stop": 102
      },
      {
        "x": "random",
        "y": "random",
        "coeff": 2.5,
        "stream": 3,
        "fromLayer": "upper",
        "sprite": true,
        "start": 100,
        "stop": 102
      },
      {
        "x": "random",
        "y": "random",
        "coeff": 2.5,
        "stream": 5,
        "fromLayer": "upper",
        "sprite": true,
        "start": 100,
        "stop": 102
      },
      {
        "x": "random",
        "y": "random",
        "coeff": 2.5,
        "stream": 5,
        "fromLayer": "upper",
        "sprite": true,
        "start": 100,
        "stop": 102
      },
      {
        "x": "random",
        "y": "random",
        "coeff": 2.5,
        "stream": 5,
        "fromLayer": "upper",
        "sprite": true,
        "start": 100,
        "stop": 102
      },
      {
        "x": "random",
        "y": "random",
        "coeff": 2.5,
        "stream": 7,
        "fromLayer": "upper",
        "sprite": true,
        "start": 100,
        "stop": 102
      },
      {
        "x": "random",
        "y": "random",
        "coeff": 2.5,
        "stream": 7,
        "fromLayer": "upper",
        "sprite": true,
        "start": 100,
        "stop": 105
      },
      {
        "x": "random",
        "y": "random",
        "coeff": 2.5,
        "stream": 7,
        "fromLayer": "upper",
        "sprite": true,
        "start": 100,
        "stop": 102
      },
      {
        "x": "random",
        "y": "random",
        "coeff": 2.5,
        "stream": 8,
        "fromLayer": "upper",
        "sprite": true,
        "start": 100,
        "stop": 102
      },
      {
        "x": "random",
        "y": "random",
        "coeff": 2.5,
        "stream": 8,
        "fromLayer": "upper",
        "sprite": true,
        "start": 100,
        "stop": 102
      },
      {
        "x": "random",
        "y": "random",
        "coeff": 2.5,
        "stream": 8,
        "fromLayer": "upper",
        "sprite": true,
        "start": 100,
        "stop": 102
      },
      {
        "x": "random",
        "y": "random",
        "coeff": 2.5,
        "stream": 10,
        "fromLayer": "upper",
        "sprite": true,
        "start": 100,
        "stop": 102
      },
      {
        "x": "random",
        "y": "random",
        "coeff": 2.5,
        "stream": 10,
        "fromLayer": "upper",
        "sprite": true,
        "start": 100,
        "stop": 102
      },
      {
        "x": "random",
        "y": "random",
        "coeff": 2.5,
        "stream": 10,
        "fromLayer": "upper",
        "sprite": true,
        "start": 100,
        "stop": 102
      },
      {
        "x": "random",
        "y": "random",
        "coeff": 2.5,
        "stream": 12,
        "fromLayer": "upper",
        "sprite": true,
        "start": 100,
        "stop": 102
      },
      {
        "x": "random",
        "y": "random",
        "coeff": 2.5,
        "stream": 12,
        "fromLayer": "upper",
        "sprite": true,
        "start": 100,
        "stop": 102
      },
      {
        "x": "random",
        "y": "random",
        "coeff": 2.5,
        "stream": 12,
        "fromLayer": "upper",
        "sprite": true,
        "start": 100,
        "stop": 102
      },
      {
        "x": "random",
        "y": "random",
        "coeff": 2.5,
        "stream": 12,
        "fromLayer": "upper",
        "sprite": true,
        "start": 100,
        "stop": 102
      },
      {
        "x": "random",
        "y": "random",
        "coeff": 2.5,
        "stream": 14,
        "fromLayer": "upper",
        "sprite": true,
        "start": 100,
        "stop": 102
      },
      {
        "x": "random",
        "y": "random",
        "coeff": 2.5,
        "stream": 14,
        "fromLayer": "upper",
        "sprite": true,
        "start": 100,
        "stop": 102
      },
      {
        "x": "random",
        "y": "random",
        "coeff": 2.5,
        "stream": 14,
        "fromLayer": "upper",
        "sprite": true,
        "start": 100,
        "stop": 102
      }
    ],
    "5": [
      {
        "stream": 20
      },
      {
        "stream": 17
      },
      {
        "stream": 19
      },
      {
        "stream": 18
      }
    ]
  },
  "attractorsMobile": {
    "0": {  "x": 1, "y": 1, "coeff": 1 },
    "1": [
      {
        "x": 0.2106,
        "y": 0.3716,
        "coeff": 2,
        "stream": 0
      },
      {
        "x": 0.0675,
        "y": 0.3716,
        "coeff": 2,
        "stream": 1
      }
    ],
    "2": [
      {
        "x": 0.147,
        "y": 0.355,
        "coeff": 10,
        "stream": 2,
        "omni": true
      },
      {
        "x": 0.2106,
        "y": 0.3716,
        "coeff": 3,
        "stream": 0,
        "fromLayer": "upper"
      },
      {
        "x": 0.0675,
        "y": 0.3716,
        "coeff": 3,
        "stream": 1,
        "fromLayer": "upper"
      },
      {
        "x": 0.0504,
        "y": 0.3682,
        "coeff": 1.5,
        "stream": 8,
        "fromLayer": "lower"
      },
      {
        "x": 0.155,
        "y": 0.368,
        "coeff": 1.5,
        "stream": 12,
        "fromLayer": "lower"
      },
      {
        "x": 0.198,
        "y": 0.365,
        "coeff": 1.5,
        "stream": 14,
        "fromLayer": "lower"
      }
    ],
    "3": [
      { "x": 0.016, "y": 0.363, "coeff": 1.5, "stream": 12 },
      { "x": 0.027, "y": 0.361, "coeff": 1.5, "stream": 13 },
      { "x": 0.042, "y": 0.361, "coeff": 1.5, "stream": 12 },
      { "x": 0.051, "y": 0.368, "coeff": 1.5, "stream": 13 },
      { "x": 0.058, "y": 0.375, "coeff": 1.5, "stream": 12 },
      { "x": 0.065, "y": 0.382, "coeff": 1.5, "stream": 13 },
      { "x": 0.074, "y": 0.386, "coeff": 1.5, "stream": 12 },
      { "x": 0.085, "y": 0.388, "coeff": 1.5, "stream": 13 },
      { "x": 0.096, "y": 0.387, "coeff": 1.5, "stream": 12 },
      { "x": 0.104, "y": 0.385, "coeff": 1.5, "stream": 13 },
      { "x": 0.116, "y": 0.379, "coeff": 1.5, "stream": 12 },
      { "x": 0.129, "y": 0.372, "coeff": 1.5, "stream": 13 },
      { "x": 0.135, "y": 0.369, "coeff": 1.5, "stream": 12 },
      { "x": 0.147, "y": 0.365, "coeff": 1.5, "stream": 13 },
      { "x": 0.159, "y": 0.365, "coeff": 1.5, "stream": 12 },
      { "x": 0.167, "y": 0.370, "coeff": 1.5, "stream": 13 },

      { "x": 0.002, "y": 0.386, "coeff": 1.5, "stream": 14 },
      { "x": 0.018, "y": 0.387, "coeff": 1.5, "stream": 15 },
      { "x": 0.034, "y": 0.387, "coeff": 1.5, "stream": 14 },
      { "x": 0.078, "y": 0.379, "coeff": 1.5, "stream": 15 },
      { "x": 0.086, "y": 0.378, "coeff": 1.5, "stream": 14 },
      { "x": 0.097, "y": 0.376, "coeff": 1.5, "stream": 15 },
      { "x": 0.108, "y": 0.376, "coeff": 1.5, "stream": 14 },
      { "x": 0.116, "y": 0.375, "coeff": 1.5, "stream": 15 },
      { "x": 0.129, "y": 0.378, "coeff": 1.5, "stream": 14 },
      { "x": 0.139, "y": 0.380, "coeff": 1.5, "stream": 15 },
      { "x": 0.149, "y": 0.383, "coeff": 1.5, "stream": 14 },
      { "x": 0.159, "y": 0.386, "coeff": 1.5, "stream": 15 },
      { "x": 0.171, "y": 0.387, "coeff": 1.5, "stream": 14 },
      { "x": 0.183, "y": 0.387, "coeff": 1.5, "stream": 15 },
      { "x": 0.193, "y": 0.385, "coeff": 1.5, "stream": 14 },
      { "x": 0.203, "y": 0.383, "coeff": 1.5, "stream": 15 },
      { "x": 0.211, "y": 0.380, "coeff": 1.5, "stream": 14 },

      { "x": 0.033, "y": 0.365, "coeff": 1.5, "stream": 8 },
      { "x": 0.046, "y": 0.367, "coeff": 1.5, "stream": 9 },
      { "x": 0.057, "y": 0.366, "coeff": 1.5, "stream": 8 },
      { "x": 0.065, "y": 0.367, "coeff": 1.5, "stream": 9 },
      { "x": 0.075, "y": 0.369, "coeff": 1.5, "stream": 8 },
      { "x": 0.087, "y": 0.372, "coeff": 1.5, "stream": 9 },
      { "x": 0.095, "y": 0.371, "coeff": 1.5, "stream": 8 },
      { "x": 0.108, "y": 0.381, "coeff": 1.5, "stream": 9 },
      { "x": 0.119, "y": 0.384, "coeff": 1.5, "stream": 8 },
      { "x": 0.127, "y": 0.385, "coeff": 1.5, "stream": 9 },
      { "x": 0.135, "y": 0.385, "coeff": 1.5, "stream": 8 },
      { "x": 0.142, "y": 0.386, "coeff": 1.5, "stream": 9 },
      { "x": 0.163, "y": 0.382, "coeff": 1.5, "stream": 8 },
      { "x": 0.173, "y": 0.381, "coeff": 1.5, "stream": 9 },

      { "x": 0.012, "y": 0.373, "coeff": 1.5, "stream": 7 },

      { "x": 0.020, "y": 0.376, "coeff": 1.5, "stream": 10 },
      { "x": 0.031, "y": 0.377, "coeff": 1.5, "stream": 11 },
      { "x": 0.038, "y": 0.382, "coeff": 1.5, "stream": 10 },
      { "x": 0.047, "y": 0.385, "coeff": 1.5, "stream": 11 },
      { "x": 0.055, "y": 0.387, "coeff": 1.5, "stream": 10 },

      { "x": 0.217, "y": 0.370, "coeff": 1.5, "stream": 3 },
      { "x": 0.218, "y": 0.380, "coeff": 1.5, "stream": 4 },

      { "x": 0.231, "y": 0.370, "coeff": 1.5, "stream": 5 },
      { "x": 0.241, "y": 0.365, "coeff": 1.5, "stream": 6 },
      { "x": 0.250, "y": 0.366, "coeff": 1.5, "stream": 5 },
      { "x": 0.254, "y": 0.376, "coeff": 1.5, "stream": 6 }

    ],
    "4": [
      {
        "x": 0.130,
        "y": 0.371,
        "coeff": 100,
        "stream": 16,
        "omni": true
      },
      {
        "x": "random",
        "y": "random",
        "coeff": 2.5,
        "stream": 0,
        "fromLayer": "upper",
        "sprite": true,
        "start": 100,
        "stop": 105
      },
      {
        "x": "random",
        "y": "random",
        "coeff": 2.5,
        "stream": 0,
        "fromLayer": "upper",
        "sprite": true,
        "start": 100,
        "stop": 105
      },
      {
        "x": "random",
        "y": "random",
        "coeff": 2.5,
        "stream": 0,
        "fromLayer": "upper",
        "sprite": true,
        "start": 100,
        "stop": 105
      },
      {
        "x": "random",
        "y": "random",
        "coeff": 2.5,
        "stream": 0,
        "fromLayer": "upper",
        "sprite": true,
        "start": 100,
        "stop": 105
      },
      {
        "x": "random",
        "y": "random",
        "coeff": 2.5,
        "stream": 1,
        "fromLayer": "upper",
        "sprite": true,
        "start": 127,
        "stop": 132
      },
      {
        "x": "random",
        "y": "random",
        "coeff": 2.5,
        "stream": 1,
        "fromLayer": "upper",
        "sprite": true,
        "start": 127,
        "stop": 132
      },
      {
        "x": "random",
        "y": "random",
        "coeff": 2.5,
        "stream": 1,
        "fromLayer": "upper",
        "sprite": true,
        "start": 242,
        "stop": 247
      },
      {
        "x": "random",
        "y": "random",
        "coeff": 2.5,
        "stream": 1,
        "fromLayer": "upper",
        "sprite": true,
        "start": 242,
        "stop": 247
      },
      {
        "x": "random",
        "y": "random",
        "coeff": 2.5,
        "stream": 1,
        "fromLayer": "upper",
        "sprite": true,
        "start": 336,
        "stop": 341
      },
      {
        "x": "random",
        "y": "random",
        "coeff": 2.5,
        "stream": 1,
        "fromLayer": "upper",
        "sprite": true,
        "start": 336,
        "stop": 341
      },
      {
        "x": "random",
        "y": "random",
        "coeff": 2.5,
        "stream": 2,
        "fromLayer": "upper",
        "sprite": true,
        "start": 5,
        "stop": 10
      },
      {
        "x": "random",
        "y": "random",
        "coeff": 2.5,
        "stream": 2,
        "fromLayer": "upper",
        "sprite": true,
        "start": 5,
        "stop": 10
      },
      {
        "x": "random",
        "y": "random",
        "coeff": 2.5,
        "stream": 2,
        "fromLayer": "upper",
        "sprite": true,
        "start": 270,
        "stop": 275
      },
      {
        "x": "random",
        "y": "random",
        "coeff": 2.5,
        "stream": 2,
        "fromLayer": "upper",
        "sprite": true,
        "start": 270,
        "stop": 275
      },
      {
        "x": "random",
        "y": "random",
        "coeff": 2.5,
        "stream": 3,
        "fromLayer": "upper",
        "sprite": true,
        "start": 100,
        "stop": 105
      },
      {
        "x": "random",
        "y": "random",
        "coeff": 2.5,
        "stream": 3,
        "fromLayer": "upper",
        "sprite": true,
        "start": 100,
        "stop": 105
      },
      {
        "x": "random",
        "y": "random",
        "coeff": 2.5,
        "stream": 3,
        "fromLayer": "upper",
        "sprite": true,
        "start": 100,
        "stop": 105
      },
      {
        "x": "random",
        "y": "random",
        "coeff": 2.5,
        "stream": 5,
        "fromLayer": "upper",
        "sprite": true,
        "start": 100,
        "stop": 105
      },
      {
        "x": "random",
        "y": "random",
        "coeff": 2.5,
        "stream": 5,
        "fromLayer": "upper",
        "sprite": true,
        "start": 100,
        "stop": 105
      },
      {
        "x": "random",
        "y": "random",
        "coeff": 2.5,
        "stream": 5,
        "fromLayer": "upper",
        "sprite": true,
        "start": 100,
        "stop": 105
      },
      {
        "x": "random",
        "y": "random",
        "coeff": 2.5,
        "stream": 7,
        "fromLayer": "upper",
        "sprite": true,
        "start": 100,
        "stop": 105
      },
      {
        "x": "random",
        "y": "random",
        "coeff": 2.5,
        "stream": 7,
        "fromLayer": "upper",
        "sprite": true,
        "start": 100,
        "stop": 105
      },
      {
        "x": "random",
        "y": "random",
        "coeff": 2.5,
        "stream": 7,
        "fromLayer": "upper",
        "sprite": true,
        "start": 100,
        "stop": 105
      },
      {
        "x": "random",
        "y": "random",
        "coeff": 2.5,
        "stream": 8,
        "fromLayer": "upper",
        "sprite": true,
        "start": 100,
        "stop": 105
      },
      {
        "x": "random",
        "y": "random",
        "coeff": 2.5,
        "stream": 8,
        "fromLayer": "upper",
        "sprite": true,
        "start": 100,
        "stop": 105
      },
      {
        "x": "random",
        "y": "random",
        "coeff": 2.5,
        "stream": 8,
        "fromLayer": "upper",
        "sprite": true,
        "start": 100,
        "stop": 105
      },
      {
        "x": "random",
        "y": "random",
        "coeff": 2.5,
        "stream": 10,
        "fromLayer": "upper",
        "sprite": true,
        "start": 100,
        "stop": 105
      },
      {
        "x": "random",
        "y": "random",
        "coeff": 2.5,
        "stream": 10,
        "fromLayer": "upper",
        "sprite": true,
        "start": 100,
        "stop": 105
      },
      {
        "x": "random",
        "y": "random",
        "coeff": 2.5,
        "stream": 10,
        "fromLayer": "upper",
        "sprite": true,
        "start": 100,
        "stop": 105
      },
      {
        "x": "random",
        "y": "random",
        "coeff": 2.5,
        "stream": 12,
        "fromLayer": "upper",
        "sprite": true,
        "start": 100,
        "stop": 105
      },
      {
        "x": "random",
        "y": "random",
        "coeff": 2.5,
        "stream": 12,
        "fromLayer": "upper",
        "sprite": true,
        "start": 100,
        "stop": 105
      },
      {
        "x": "random",
        "y": "random",
        "coeff": 2.5,
        "stream": 12,
        "fromLayer": "upper",
        "sprite": true,
        "start": 100,
        "stop": 105
      },
      {
        "x": "random",
        "y": "random",
        "coeff": 2.5,
        "stream": 12,
        "fromLayer": "upper",
        "sprite": true,
        "start": 100,
        "stop": 105
      },
      {
        "x": "random",
        "y": "random",
        "coeff": 2.5,
        "stream": 14,
        "fromLayer": "upper",
        "sprite": true,
        "start": 100,
        "stop": 105
      },
      {
        "x": "random",
        "y": "random",
        "coeff": 2.5,
        "stream": 14,
        "fromLayer": "upper",
        "sprite": true,
        "start": 100,
        "stop": 105
      },
      {
        "x": "random",
        "y": "random",
        "coeff": 2.5,
        "stream": 14,
        "fromLayer": "upper",
        "sprite": true,
        "start": 100,
        "stop": 105
      }
    ],
    "5": [
      {
        "stream": 20
      },
      {
        "stream": 17
      },
      {
        "stream": 19
      },
      {
        "stream": 18
      }
    ]
  }
}
